{
  "app.css": "static/css/app.433ce9888b697d39f89f01576f6a704b.css",
  "app.js": "static/js/app.ca44ad1f342e5feb934e.js",
  "app.js.map": "static/js/app.ca44ad1f342e5feb934e.js.map",
  "manifest.js": "static/js/manifest.b2b10a971993f858cd3d.js",
  "manifest.js.map": "static/js/manifest.b2b10a971993f858cd3d.js.map",
  "static/fonts/fontawesome-webfont.eot": "static/fonts/fontawesome-webfont.674f50d.eot",
  "static/fonts/fontawesome-webfont.eot?v=4.7.0": "static/fonts/fontawesome-webfont.674f50d.eot",
  "static/fonts/fontawesome-webfont.ttf?v=4.7.0": "static/fonts/fontawesome-webfont.b06871f.ttf",
  "static/fonts/fontawesome-webfont.woff2?v=4.7.0": "static/fonts/fontawesome-webfont.af7ae50.woff2",
  "static/fonts/fontawesome-webfont.woff?v=4.7.0": "static/fonts/fontawesome-webfont.fee66e7.woff",
  "static/img/fontawesome-webfont.svg?v=4.7.0": "static/img/fontawesome-webfont.912ec66.svg",
  "vendor.js": "static/js/vendor.a0aa74c7596cbd74f5fa.js",
  "vendor.js.map": "static/js/vendor.a0aa74c7596cbd74f5fa.js.map"
}